…
dogweights_df
```

    ## # A tibble: 550 x 3
    ##    date       dognames_and_std weights_in_lbs
    ##    <date>     <chr>                     <dbl>
    ##  1 2018-08-12 raisin                     19.8
    ##  2 2018-08-12 simone                     10.9
    ##  3 2018-08-12 gagne                      10.6
    ##  4 2018-08-19 raisin                     20.2
    ##  5 2018-08-19 simone                     11.1
    ##  6 2018-08-19 gagne                      10.8
    ##  7 2018-08-19 std                        21.0
    ##  8 2018-08-22 raisin                     20.2
    ##  9 2018-08-22 simone                     11.2
    ## 10 2018-08-22 gagne                      10.8
    ## # … with 540 more rows
…
